<?xml version="1.0" encoding="UTF-8" standalone="no"?>
<svg
   xmlns:dc="http://purl.org/dc/elements/1.1/"
   xmlns:cc="http://creativecommons.org/ns#"
   xmlns:rdf="http://www.w3.org/1999/02/22-rdf-syntax-ns#"
   xmlns:svg="http://www.w3.org/2000/svg"
   xmlns="http://www.w3.org/2000/svg"
   xml:space="preserve"
   enable-background="new 0 0 154.537 35.91"
   viewBox="0 0 154.537 35.91"
   height="35.91px"
   width="154.537px"
   y="0px"
   x="0px"
   id="Ebene_1"
   version="1.1"><metadata
   id="metadata23"><rdf:RDF><cc:Work
       rdf:about=""><dc:format>image/svg+xml</dc:format><dc:type
         rdf:resource="http://purl.org/dc/dcmitype/StillImage" /><dc:title></dc:title></cc:Work></rdf:RDF></metadata><defs
   id="defs21" />
<g
   style="fill:#000000"
   id="g10">
	<path
   style="fill:#000000"
   id="path2"
   d="M25.223,35.91H0v-5.741L16.537,6.173H1.129V0.48h23.946v5.398L7.95,30.217h17.273V35.91z"
   fill="#FFFFFF" />
	<path
   style="fill:#000000"
   id="path4"
   d="M26.249,0.48h6.331l4.464,23.897h0.099L42.196,0.48h6.969l4.661,23.897h0.099L58.782,0.48h6.331   l-7.36,35.43h-6.87L45.73,10.687h-0.1L40.528,35.91h-6.871L26.249,0.48z"
   fill="#FFFFFF" />
	<path
   style="fill:#000000"
   id="path6"
   d="M66.551,35.91V0.48h23.457v5.693H73.323v8.44h12.122v5.692H73.323v9.912h17.224v5.692H66.551z"
   fill="#FFFFFF" />
	<path
   style="fill:#000000"
   id="path8"
   d="M93.459,35.91V0.48h6.771v35.43H93.459z"
   fill="#FFFFFF" />
</g>
<g
   style="fill:#000000"
   id="g16">
	<path
   style="fill:#000000"
   id="path12"
   d="M112.836,35.91V33.26h6.084V3.532l-6.771,0.981V2.6l7.947-2.6h2.061v33.26h5.887v2.649H112.836z"
   fill="#FFFFFF" />
	<path
   style="fill:#000000"
   id="path14"
   d="M129.322,24.479l15.551-23.988h4.316v23.891h5.348v2.6h-5.348v8.929h-3.237v-8.929h-16.63V24.479z    M132.56,24.333h13.393v-20.8h-0.343L132.56,24.333z"
   fill="#FFFFFF" />
</g>
</svg>